{
    "pricing": {
        "std": {
            "first_hour": 170,
            "hourly_rate": 70,
            "cable_per_foot": 0.29,
            "per_jack": 7
        }
    },

    "estimators": {
        "std": {
            "high_estimate_add_hours": 2,
            "hours_per_100_feet_cable": 0.5,
            "hours_per_wall": 0.5,
            "hours_per_termination": 0.5
        }
    },

    "wiring_types": ["Circuit", "Service Drop"],
    "circuit_types": ["T1","DS3","Ethernet","Coax","XDSL","Other"],
    "cable_types": ["Cat5e", "Cat5e Plenum"]
}

